<svg width="499" height="600" viewBox="0 0 499 600" fill="none" xmlns="http://www.w3.org/2000/svg">
<g opacity="0.5">
<path d="M223.522 51.087C228.959 42.9307 226.675 31.9033 218.445 26.5783L181.73 2.82196C173.658 -2.40111 162.887 -0.169852 157.554 7.8294L112.092 76.0211L183.196 111.572L223.522 51.087Z" fill="url(#paint0_linear)"/>
<path d="M285.994 162.968L319.278 113.042C324.715 104.886 322.431 93.8586 314.201 88.5336L277.486 64.7772C269.414 59.5542 258.644 61.7854 253.31 69.7847L214.89 127.415L285.994 162.968Z" fill="url(#paint1_linear)"/>
<path d="M293.974 251.424L326.167 265.732C333.992 269.209 343.183 266.542 347.932 259.419L407.472 170.109C412.91 161.952 410.626 150.925 402.395 145.6L373.24 126.734C365.168 121.511 354.398 123.742 349.064 131.741L286.486 225.609C280.444 234.676 284.018 246.999 293.974 251.424Z" fill="url(#paint2_linear)"/>
<path d="M490.588 202.667L461.433 183.802C453.361 178.579 442.59 180.81 437.257 188.809L383.869 268.891C377.826 277.957 381.4 290.28 391.357 294.705L423.549 309.013C431.374 312.49 440.565 309.825 445.315 302.7L495.664 227.174C501.102 219.02 498.818 207.993 490.588 202.667Z" fill="url(#paint3_linear)"/>
<path d="M430.683 345.687C430.68 345.687 430.682 345.687 430.679 345.687C423.261 345.687 416.058 344.157 409.27 341.139L245.001 268.132H233.893L307.736 415.818C312.203 424.754 308.347 435.673 299.107 439.763C290.451 443.594 280.303 439.563 276.07 431.097L194.587 268.132H119.385C109.919 268.132 101.775 260.858 101.33 251.404C100.854 241.309 108.898 232.976 118.888 232.976H229.916C235.793 232.976 241.282 230.038 244.543 225.148L255.297 209.015C261.162 200.218 257.989 188.271 248.532 183.542L106.324 112.438C98.3952 108.474 88.7542 111.035 83.837 118.41L2.95268 239.739C-1.16062 245.907 -0.960231 253.995 3.45307 259.952L133.013 434.857C136.141 439.08 137.216 444.482 135.941 449.582L103.796 578.159C101.023 589.253 109.414 600 120.85 600H386.701C396.409 600 404.279 592.13 404.279 582.422V488.6C404.279 482.732 407.207 477.253 412.083 473.99C412.083 473.99 416.493 471.041 423.016 466.691C451.936 447.412 469.201 415.153 469.201 380.396V328.946C459.318 339.541 445.451 345.687 430.683 345.687Z" fill="url(#paint4_linear)"/>
</g>
<defs>
<linearGradient id="paint0_linear" x1="169.284" y1="0" x2="169.284" y2="111.572" gradientUnits="userSpaceOnUse">
<stop stop-color="#D62D34"/>
<stop offset="1" stop-color="#D62D34" stop-opacity="0"/>
</linearGradient>
<linearGradient id="paint1_linear" x1="268.561" y1="61.9553" x2="268.561" y2="162.968" gradientUnits="userSpaceOnUse">
<stop stop-color="#D62D34"/>
<stop offset="1" stop-color="#D62D34" stop-opacity="0"/>
</linearGradient>
<linearGradient id="paint2_linear" x1="346.978" y1="123.912" x2="346.978" y2="267.248" gradientUnits="userSpaceOnUse">
<stop stop-color="#D62D34"/>
<stop offset="1" stop-color="#D62D34" stop-opacity="0"/>
</linearGradient>
<linearGradient id="paint3_linear" x1="439.765" y1="180.98" x2="439.765" y2="310.529" gradientUnits="userSpaceOnUse">
<stop stop-color="#D62D34"/>
<stop offset="1" stop-color="#D62D34" stop-opacity="0"/>
</linearGradient>
<linearGradient id="paint4_linear" x1="234.601" y1="110.581" x2="234.601" y2="600" gradientUnits="userSpaceOnUse">
<stop stop-color="#D62D34"/>
<stop offset="1" stop-color="#D62D34" stop-opacity="0"/>
</linearGradient>
</defs>
</svg>
