<svg width="871" height="614" viewBox="0 0 871 614" fill="none" xmlns="http://www.w3.org/2000/svg">
<path opacity="0.25" fill-rule="evenodd" clip-rule="evenodd" d="M79.2303 453.95C98.5281 500.539 126.813 542.871 162.471 578.529L127.116 613.884C86.815 573.584 54.8468 525.74 33.0363 473.085C11.2257 420.429 1.52043e-05 363.994 1.52043e-05 307C1.52043e-05 250.006 11.2257 193.571 33.0363 140.915C54.8468 88.26 86.815 40.4163 127.116 0.11561L162.471 35.4709C126.813 71.1287 98.5281 113.46 79.2302 160.05C59.9325 206.639 50 256.572 50 307C50 357.428 59.9324 407.361 79.2303 453.95ZM791.001 160.05C771.703 113.46 743.418 71.1287 707.76 35.471L743.116 0.115632C783.416 40.4163 815.384 88.2601 837.195 140.915C859.006 193.571 870.231 250.006 870.231 307C870.231 363.994 859.006 420.429 837.195 473.085C815.384 525.74 783.416 573.584 743.116 613.884L707.76 578.529C743.418 542.871 771.703 500.539 791.001 453.95C810.299 407.361 820.231 357.428 820.231 307C820.231 256.572 810.299 206.639 791.001 160.05ZM309.5 311.5H285.5V368.5C273.833 376 260.167 379.75 244.5 379.75C231.333 379.75 219.417 376.833 208.75 371C198.25 365.167 190 357.167 184 347C178 336.667 175 325.167 175 312.5C175 299.667 178 288.167 184 278C190 267.667 198.25 259.667 208.75 254C219.417 248.167 231.417 245.25 244.75 245.25C264.583 245.25 281.5 252 295.5 265.5L311 250C303 241.167 293.25 234.5 281.75 230C270.417 225.333 257.75 223 243.75 223C225.917 223 209.833 226.833 195.5 234.5C181.333 242.167 170.167 252.833 162 266.5C154 280.167 150 295.5 150 312.5C150 329.5 154 344.833 162 358.5C170.167 372 181.333 382.667 195.5 390.5C209.667 398.167 225.583 402 243.25 402C255.75 402 267.75 400.083 279.25 396.25C290.75 392.417 300.833 386.917 309.5 379.75V311.5ZM375.115 392.75C385.615 398.583 397.449 401.5 410.615 401.5C423.782 401.5 435.532 398.583 445.865 392.75C456.365 386.917 464.532 378.917 470.365 368.75C476.365 358.417 479.365 346.75 479.365 333.75C479.365 320.75 476.365 309.167 470.365 299C464.532 288.667 456.365 280.667 445.865 275C435.532 269.167 423.782 266.25 410.615 266.25C397.449 266.25 385.615 269.167 375.115 275C364.615 280.667 356.365 288.667 350.365 299C344.532 309.167 341.615 320.75 341.615 333.75C341.615 346.75 344.532 358.417 350.365 368.75C356.365 378.917 364.615 386.917 375.115 392.75ZM433.365 374.75C426.699 378.583 419.115 380.5 410.615 380.5C402.115 380.5 394.449 378.583 387.615 374.75C380.949 370.75 375.615 365.25 371.615 358.25C367.782 351.083 365.865 342.917 365.865 333.75C365.865 324.583 367.782 316.5 371.615 309.5C375.615 302.333 380.949 296.833 387.615 293C394.449 289.167 402.115 287.25 410.615 287.25C419.115 287.25 426.699 289.167 433.365 293C440.199 296.833 445.532 302.333 449.365 309.5C453.199 316.5 455.115 324.583 455.115 333.75C455.115 342.917 453.199 351.083 449.365 358.25C445.532 365.25 440.199 370.75 433.365 374.75ZM536.557 214.5H512.557V400H536.557V214.5ZM707.381 400V214.5H683.381V287.5C678.048 280.5 671.381 275.25 663.381 271.75C655.381 268.083 646.631 266.25 637.131 266.25C624.297 266.25 612.797 269.083 602.631 274.75C592.464 280.417 584.464 288.333 578.631 298.5C572.964 308.667 570.131 320.417 570.131 333.75C570.131 347.083 572.964 358.917 578.631 369.25C584.464 379.417 592.464 387.333 602.631 393C612.797 398.667 624.297 401.5 637.131 401.5C646.964 401.5 655.964 399.583 664.131 395.75C672.297 391.917 679.047 386.333 684.381 379V400H707.381ZM661.881 374.75C655.048 378.583 647.464 380.5 639.131 380.5C630.631 380.5 622.964 378.583 616.131 374.75C609.464 370.75 604.131 365.25 600.131 358.25C596.297 351.083 594.381 342.917 594.381 333.75C594.381 324.583 596.297 316.5 600.131 309.5C604.131 302.333 609.464 296.833 616.131 293C622.964 289.167 630.631 287.25 639.131 287.25C647.464 287.25 655.048 289.167 661.881 293C668.714 296.833 674.047 302.333 677.881 309.5C681.714 316.5 683.631 324.583 683.631 333.75C683.631 342.917 681.714 351.083 677.881 358.25C674.047 365.25 668.714 370.75 661.881 374.75Z" fill="url(#paint0_linear)"/>
<defs>
<linearGradient id="paint0_linear" x1="435.116" y1="0.115601" x2="435.116" y2="613.884" gradientUnits="userSpaceOnUse">
<stop stop-color="#AC8100"/>
<stop offset="1" stop-color="#AC8100" stop-opacity="0"/>
</linearGradient>
</defs>
</svg>
